%YAML 1.1
%TAG !u! tag:unity3d.com,2011:
--- !u!1386491679 &1
PresetManager:
  m_ObjectHideFlags: 0
  serializedVersion: 2
  m_DefaultPresets:
  - first:
      m_NativeTypeID: 1041
      m_ManagedTypePPtr: {fileID: 0}
      m_ManagedTypeFallback: 
    second:
    - m_Preset: {fileID: 2655988077585873504, guid: 47076a042551f7f45ba2d3ef64fe37b9,
        type: 2}
      m_Filter: 
      m_Disabled: 0
